ID,FROM_BUS,TO_BUS,R_OHM,X_OHM,C_NF_PER_KM,MAX_I_KA,TO_BUS_MW,TO_BUS_MVAR
0,0,3,0.075,0.10,9.95,1.150,2.0,1.6
1,3,4,0.080,0.11,9.95,1.150,3.0,1.5
2,3,5,0.090,0.18,9.75,0.960,2.0,0.8
3,5,6,0.040,0.04,9.95,1.150,1.5,1.2
4,1,7,0.110,0.11,9.75,0.960,4.0,2.7
5,7,8,0.080,0.11,9.95,1.150,5.0,3.0
6,7,9,0.110,0.11,9.75,0.960,1.0,0.9
7,8,10,0.110,0.11,9.75,0.960,0.6,0.1
8,8,11,0.080,0.11,9.95,1.150,4.5,2.0
9,2,12,0.110,0.11,9.75,0.960,1.0,0.9
10,12,13,0.090,0.12,9.75,0.960,1.0,0.7
11,12,14,0.080,0.11,9.95,1.150,1.0,0.9
12,14,15,0.040,0.04,9.95,1.150,2.1,1.0
13,4,10,0.040,0.04,9.95,1.150,,
14,9,13,0.040,0.04,9.95,1.150,,
15,6,15,0.090,0.04,9.75,0.960,,
,,AVG,0.0790625,,,,,
